Name,Temperature,Humidity,Latitude,Longitude,Cloudiness,Wind Speed
Ribeira Brava,59.34,77,32.65,-17.07,20,10.29
Khatanga,21.34,95,71.97,102.5,99,25.43
Saint-Paul,74.77,78,-21.01,55.27,52,16.11
Saskylakh,31.91,94,71.92,114.08,91,23.55
Puerto Ayora,80.01,89,-0.74,-90.35,93,1.01
Sonegaon,87.8,33,20.65,78.68,0,2.24
Ponta do Sol,59.43,77,32.67,-17.1,20,10.29
Port Elizabeth,53.6,93,-33.92,25.57,20,3.29
Rypefjord,28.4,86,70.63,23.67,100,9.17
Boguchany,44.15,57,58.38,97.45,6,7.11
San Ramon,52.86,81,37.78,-121.98,40,3.36
Rikitea,77.41,77,-23.12,-134.97,48,10.69
Prome,105.91,15,18.82,95.22,80,2.06
Moguer,60.01,83,37.28,-6.84,63,2.68
Hwange,71.56,57,-18.37,26.5,60,2.04
Vao,74.48,72,-22.67,167.48,99,10.76
Mataura,66.99,54,-46.19,168.86,3,3.0
Mae Sot,92.98,31,16.72,98.57,94,2.24
Sayansk,40.8,66,54.11,102.16,100,8.97
Chateaubelair,76.51,78,13.28,-61.25,90,16.46
Iracoubo,78.57,82,5.48,-53.2,98,12.1
Arraial do Cabo,71.94,81,-22.97,-42.03,88,8.59
Avarua,82.4,94,-21.21,-159.78,100,4.7
Torbay,36.93,93,47.67,-52.73,90,8.05
Grado,55.83,100,43.39,-6.07,90,1.7
Dikson,13.14,94,73.51,80.55,92,9.82
Calbuco,48.2,100,-41.77,-73.13,20,3.36
Griffith,40.57,58,41.53,-87.42,1,4.65
Skjervøy,31.46,94,70.03,20.97,100,22.08
Ushuaia,42.8,56,-54.8,-68.3,40,5.28
Hermanus,61.0,91,-34.42,19.23,99,3.0
Puri,93.2,34,19.8,85.85,20,3.36
Cape Town,61.83,93,-33.93,18.42,20,9.17
Souillac,80.78,74,-20.52,57.52,75,18.34
Nantucket,39.43,86,41.28,-70.1,1,12.75
Somerset West,61.75,93,-34.08,18.82,20,9.17
Aklavik,17.6,67,68.22,-135.01,75,3.36
Bethel,41.04,56,41.37,-73.41,90,9.17
Ilulissat,28.4,50,69.22,-51.1,69,3.36
Mahébourg,80.76,74,-20.41,57.7,75,18.34
Narsaq,46.4,28,60.92,-46.05,100,20.8
Atuona,82.22,76,-9.8,-139.03,81,11.14
Ţahţā,55.4,31,26.77,31.5,0,6.93
Tual,84.02,72,-5.67,132.75,4,8.01
Saint-Pierre,75.47,61,-21.34,55.48,75,14.99
Laguna,56.16,71,38.42,-121.42,1,11.41
Saint Paul Harbor,39.2,64,57.79,-152.41,75,9.17
Punta Arenas,38.07,86,-53.15,-70.92,40,13.87
Havelock,44.82,49,34.88,-76.9,1,5.82
Palmer,36.97,55,42.16,-72.33,1,11.41
Frutal,60.84,72,-20.02,-48.94,15,3.69
Businga,76.15,77,3.33,20.88,95,1.32
Catalina,61.3,23,32.51,-110.92,1,2.89
Thompson,28.4,68,55.74,-97.86,90,3.36
Buala,84.33,74,-8.14,159.59,72,7.23
Albany,35.53,64,42.6,-73.97,75,13.87
Leesburg,38.41,56,39.12,-77.56,1,8.05
Salalah,82.4,78,17.02,54.09,40,6.93
Busselton,94.19,17,-33.65,115.33,72,5.59
Turukhansk,32.54,97,65.82,87.98,100,14.2
San Alberto,77.76,74,7.76,-73.39,95,2.55
Nikolskoye,32.97,80,59.7,30.79,40,8.95
Derzhavīnsk,49.44,47,51.1,66.32,100,12.84
Baharly,61.39,49,38.44,57.43,91,2.44
Kovdor,22.93,91,67.57,30.48,71,7.31
Bluff,66.99,54,-46.6,168.33,5,3.0
Hithadhoo,85.05,61,-0.6,73.08,54,6.98
Russell,46.42,81,32.35,-85.2,1,5.28
Hong Kong,76.98,74,22.29,114.16,40,4.7
Hobart,52.09,81,-42.88,147.33,75,18.34
Norman Wells,24.8,53,65.28,-126.83,75,2.24
São João da Barra,70.88,85,-21.64,-41.05,95,4.9
Alice Springs,84.2,14,-23.7,133.88,9,9.17
Koundara,72.23,90,12.48,-13.3,5,6.04
Benghazi,60.76,59,32.12,20.07,2,7.2
Araguaçu,72.55,87,-12.93,-49.83,24,1.52
San Jose,52.72,76,37.34,-121.89,40,9.17
Kaka,64.45,49,37.35,59.61,99,3.06
Nizhniy Tsasuchey,62.69,19,50.52,115.13,0,7.14
Aykhal,33.8,50,66.0,111.5,100,8.95
Bandarbeyla,83.1,59,9.49,50.81,49,7.05
Tuktoyaktuk,1.4,77,69.45,-133.04,20,9.17
Port Alfred,67.32,82,-33.59,26.89,17,7.07
Talnakh,17.6,72,69.49,88.4,40,15.66
Gravdal,34.68,82,68.12,13.5,100,13.98
Deputatsky,25.12,90,69.3,139.9,48,18.9
Saint Anthony,36.21,59,45.02,-93.22,1,5.84
Longyearbyen,-7.6,76,78.22,15.64,20,3.36
Bredasdorp,60.8,82,-34.53,20.04,100,2.24
Thayetmyo,106.7,14,19.32,95.18,85,3.4
Lokosovo,39.13,90,61.13,74.82,99,11.32
Jamestown,32.59,86,42.1,-79.24,90,6.93
Geraldton,87.8,52,-28.77,114.6,70,6.93
Ko Samui,91.4,59,9.54,99.94,20,9.17
Tiksi,29.17,93,71.69,128.87,95,35.34
Riyadh,78.8,21,24.69,46.72,51,11.41
Ilūkste,36.34,73,55.98,26.3,0,10.92
Taoudenni,76.95,16,22.68,-3.98,0,5.32
Klaksvík,44.6,100,62.23,-6.59,100,8.05
Qaanaaq,3.83,72,77.48,-69.36,47,7.38
Faanui,83.48,71,-16.48,-151.75,96,8.16
Kaeo,64.99,73,-35.1,173.78,19,7.0
Anchorage,34.11,43,61.22,-149.9,1,4.7
Corinth,49.46,57,37.94,22.96,0,4.43
Chicama,74.12,73,-7.84,-79.15,93,4.81
Yellowknife,14.43,78,62.46,-114.35,75,8.05
Farmington,46.89,20,36.73,-108.22,1,5.82
Emirdağ,45.91,35,39.02,31.15,0,4.14
Kawalu,89.67,45,-7.38,108.21,5,5.77
Olinda,82.4,83,-8.01,-34.86,40,5.82
Palora,66.88,73,-1.7,-77.93,90,1.3
Lavrentiya,17.33,96,65.58,-171.0,99,7.49
Kamphaeng Phet,99.64,44,16.48,99.52,10,4.25
Waipawa,59.5,77,-41.41,175.52,6,23.04
Vaini,78.8,69,-21.2,-175.2,20,4.7
Kapaa,74.82,69,22.08,-159.32,20,10.29
Barrow,-2.2,77,71.29,-156.79,90,8.05
Pisco,71.78,88,-13.7,-76.22,75,5.82
Quelimane,75.11,73,-17.88,36.89,43,4.29
Oktyabr'skoye,44.29,70,43.06,44.74,11,2.24
Port Macquarie,74.14,38,-31.43,152.92,95,9.17
Melfi,44.6,75,41.0,15.65,5,9.17
Vredendal,61.09,81,-31.67,18.5,51,0.96
Maniitsoq,32.5,85,65.42,-52.9,100,4.94
Kiryat Gat,54.45,93,31.61,34.76,75,9.17
Tasiilaq,19.4,67,65.61,-37.64,98,2.24
New Norfolk,51.87,81,-42.78,147.06,75,18.34
Nago,73.71,57,26.59,127.98,20,16.11
Carnarvon,82.4,74,-24.87,113.63,57,14.99
Bireun,87.87,59,5.2,96.7,68,5.55
Suoyarvi,30.99,87,62.08,32.35,29,6.89
São José da Coroa Grande,80.33,80,-8.9,-35.15,12,7.78
Yakeshi,60.4,21,49.28,120.73,0,10.36
Yangi Marg`ilon,59.25,31,40.43,71.72,100,4.7
Auray,47.37,71,47.67,-2.99,0,8.05
Santa Cruz de la Sierra,64.4,72,-17.8,-63.17,40,4.7
Prince Rupert,44.6,45,54.32,-130.32,1,10.29
Murgab,53.6,87,37.5,61.97,90,9.17
Bobo-Dioulasso,77.63,59,11.18,-4.3,35,5.12
Berlevåg,28.35,91,70.86,29.09,99,15.59
Suzhou,50.9,93,31.31,120.62,75,15.66
Mar del Plata,53.6,87,-38.0,-57.56,0,3.36
Ha Giang,88.21,49,22.83,104.98,87,3.6
Kahului,72.97,54,20.89,-156.47,20,5.82
Yulara,87.8,12,-25.24,130.99,29,11.41
Gilgit,55.99,22,35.92,74.31,29,1.57
Port Lincoln,60.21,65,-34.73,135.87,82,16.06
Hambantota,87.01,63,6.12,81.12,5,11.99
São Paulo de Olivença,73.08,95,-3.38,-68.87,99,1.14
Ribeira Grande,60.84,72,38.52,-28.7,89,4.76
Asău,37.67,59,46.43,26.4,96,3.36
Westport,41.88,52,41.14,-73.36,90,11.41
Leningradskiy,13.46,86,69.38,178.42,95,8.32
Khovd,49.66,26,48.01,91.64,55,6.76
Saint-Philippe,74.68,61,-21.36,55.77,75,14.99
Quatre Cocos,80.82,74,-20.21,57.76,75,18.34
Junction City,50.65,40,39.03,-96.83,1,5.82
Lagunas,74.12,94,-5.23,-75.68,99,0.27
Belaya Gora,31.68,93,68.53,146.42,46,13.11
Whitehorse,25.9,30,60.72,-135.05,20,6.93
Esperance,80.6,44,-33.87,121.9,14,10.29
Mount Gambier,59.0,51,-37.83,140.77,90,21.92
Butaritari,84.52,74,3.07,172.79,65,9.4
Kununurra,77.0,78,-15.77,128.73,75,4.7
Dicabisagan,82.13,66,17.08,122.42,75,4.5
Nome,32.0,98,64.5,-165.41,90,10.29
Paamiut,35.96,79,61.99,-49.67,100,8.59
Dingle,89.11,49,11.0,122.67,48,11.77
College,32.59,64,64.86,-147.8,75,3.36
Fort Nelson,24.8,49,58.81,-122.7,20,3.36
Boa Vista,82.4,69,2.82,-60.67,90,9.17
Lagoa,61.02,71,39.05,-27.98,71,7.63
Cairns,86.32,66,-16.92,145.77,94,10.29
Toropets,34.21,79,56.5,31.64,99,7.81
Bambous Virieux,80.78,74,-20.34,57.76,75,18.34
Mossamedes,75.83,60,-15.2,12.15,49,4.5
Husavik,26.6,100,66.04,-17.34,90,5.82
Praia da Vitória,55.4,93,38.73,-27.07,20,8.1
Okhotsk,33.1,91,59.38,143.3,78,3.49
Grand-Santi,72.16,95,4.25,-54.38,100,1.72
Jutaí,73.83,94,-5.18,-68.9,100,1.43
Venice,71.2,73,27.1,-82.45,1,6.93
Lynden,48.54,76,48.95,-122.45,20,9.17
Bam,81.09,18,29.11,58.36,96,6.4
Kansanshi,61.41,63,-12.1,26.43,92,9.28
Brae,44.6,93,60.4,-1.35,100,13.87
Te Anau,54.55,65,-45.42,167.72,41,5.68
Constitución,54.21,90,-35.33,-72.42,100,6.64
Millinocket,32.56,96,45.66,-68.71,97,13.87
Pringsewu,92.37,50,-5.36,104.97,4,0.6
Tabas,79.74,27,33.6,56.92,98,24.9
Sept-Îles,33.91,74,50.2,-66.38,90,9.17
Tsimmerbude,32.0,66,54.67,20.13,0,4.47
Panabá,71.8,89,21.28,-88.27,3,5.59
Portland,52.27,66,45.52,-122.68,20,9.17
Akureyri,26.6,100,65.68,-18.09,90,5.82
Ketchikan,46.4,39,55.34,-131.65,1,14.99
Iqaluit,14.0,78,63.75,-68.51,75,3.09
Sambava,82.9,65,-14.27,50.17,22,11.7
Beringovskiy,11.07,95,63.05,179.32,100,16.24
Ţaga,37.02,74,46.95,24.05,90,2.24
Sovetskiy,42.01,77,61.36,63.58,98,12.82
Balkhash,46.4,45,46.84,74.98,100,17.9
Kodinsk,43.93,57,58.69,99.18,5,7.65
Port Hardy,42.8,75,50.7,-127.42,20,5.82
San Cristobal,68.02,62,7.77,-72.22,85,1.95
Castro,56.01,69,-24.79,-50.01,66,5.35
Upata,70.57,82,8.01,-62.4,100,6.24
Yanam,84.2,66,16.73,82.22,40,4.7
Tuatapere,66.99,54,-46.13,167.68,31,3.0
Cockburn Town,78.17,75,21.46,-71.14,58,4.99
Khorinsk,64.35,19,52.17,109.77,0,3.98
Oriximiná,76.21,91,-1.77,-55.87,99,5.84
Okha,34.23,86,53.57,142.95,0,8.61
Sangamner,96.53,12,19.57,74.22,0,6.46
Yaan,79.16,77,7.38,8.57,100,3.15
Akdepe,54.46,43,42.06,59.38,41,4.7
Lüderitz,55.4,82,-26.65,15.16,0,3.36
Charters Towers,87.08,37,-20.1,146.27,79,3.69
Natal,77.0,94,-5.79,-35.21,40,3.36
Burnie,60.01,46,-41.07,145.92,17,8.99
Leh,37.92,15,34.17,77.58,1,1.57
Bengkulu,89.01,54,-3.8,102.27,99,2.8
Clyde River,5.0,92,70.47,-68.59,90,17.22
Disna,35.83,77,55.57,28.2,32,13.6
Lālmohan,87.21,53,22.34,90.74,1,4.12
Zelenoborsk,41.13,79,61.47,64.03,99,12.77
Upernavik,10.62,82,72.79,-56.15,0,9.08
Mehrān,51.8,66,33.12,46.16,14,4.7
Kichera,51.82,36,55.94,110.1,26,5.68
Vadsø,21.2,85,70.07,29.75,100,14.99
Saldanha,60.8,93,-33.01,17.94,92,4.7
Margherita,77.0,57,27.28,95.68,75,5.82
Port Blair,84.13,66,11.67,92.75,25,7.23
Kumul,70.14,12,42.8,93.45,56,5.91
Senneterre,26.6,86,48.38,-77.23,90,9.17
Flinders,72.77,37,-34.58,150.86,40,28.86
Sakaiminato,57.2,47,35.55,133.23,20,10.29
Alugan,83.1,65,12.22,125.48,26,6.55
Manakara,75.85,87,-22.13,48.02,49,2.1
Safi,61.05,84,32.3,-9.24,86,14.9
Lebu,55.04,84,-37.62,-73.65,49,11.92
San Patricio,76.41,60,19.22,-104.7,7,7.74
Xinpu,58.98,34,34.6,119.16,96,8.28
East London,57.2,93,-33.02,27.91,6,2.24
Hofn,43.63,85,64.25,-15.21,100,12.1
Fortuna,50.58,100,40.6,-124.16,90,3.89
Moyale,73.45,59,3.52,39.06,57,9.86
Vryburg,64.54,44,-26.96,24.73,8,14.92
Saint George,52.83,44,37.1,-113.58,1,5.82
Kolār,81.54,65,13.13,78.13,0,6.93
Eyl,84.2,58,7.98,49.82,25,7.52
Labuhan,88.39,64,-6.88,112.21,35,2.35
Hilo,67.69,83,19.73,-155.09,90,3.36
Yamada,45.77,56,39.47,141.95,38,7.4
Biak,86.7,58,-0.91,122.88,11,6.26
Elbistan,43.75,36,38.21,37.2,5,7.94
Necochea,46.99,96,-38.55,-58.74,0,3.0
Jegunovce,42.53,70,42.07,21.12,12,1.9
Meulaboh,88.18,59,4.14,96.13,68,4.41
Dayong,69.8,77,25.02,118.29,75,2.24
Kayes,77.54,17,14.0,-11.0,0,5.59
Kirakira,83.75,69,-10.45,161.92,90,8.34
Matinhos,61.0,82,-25.82,-48.54,61,4.36
Hastings,49.15,93,50.86,0.57,54,9.17
San Miguel de Tucumán,64.4,82,-26.82,-65.22,48,4.7
Chui,60.26,85,-33.7,-53.46,0,3.24
Kupang,82.4,69,-10.17,123.58,90,5.82
Esna,60.8,55,25.29,32.55,25,3.36
Montrose,46.15,19,38.42,-108.27,1,8.05
Denpasar,84.2,83,-8.65,115.22,75,16.11
La Tuque,29.01,95,47.43,-72.78,87,10.29
Weiser,57.51,44,44.25,-116.97,1,9.17
Soyo,78.22,89,-6.13,12.37,92,8.52
Mohanūr,87.8,66,11.08,78.17,20,3.36
Cidreira,62.04,82,-30.18,-50.21,6,5.12
Eydhafushi,84.94,69,5.1,73.07,17,6.53
Rzhev,35.1,74,56.26,34.33,90,9.53
Los Andes,55.4,82,-32.83,-70.6,45,6.93
Sanbu,51.94,64,33.46,119.15,96,7.36
Sieradz,33.51,86,51.6,18.73,10,2.24
Vardø,29.26,89,70.37,31.11,100,18.66
Marsá Maţrūḩ,60.33,66,31.35,27.25,0,12.15
Kasongo-Lunda,72.7,77,-6.47,16.82,91,1.41
Keflavik,38.07,93,64.0,-22.56,75,8.05
Nianzishan,61.07,26,47.52,122.88,0,14.18
Cayenne,78.8,94,4.93,-52.33,75,8.77
Muros,53.4,100,42.78,-9.06,75,1.48
St. George's,80.6,83,12.06,-61.75,20,13.87
Labytnangi,18.97,96,66.66,66.42,100,12.5
Avera,45.97,61,33.19,-82.53,1,5.82
Bilibino,13.44,85,68.05,166.44,100,3.89
Miranda,75.2,78,3.25,-76.23,75,4.7
Provideniya,16.45,95,64.38,-173.3,100,11.83
Port Hedland,96.8,20,-20.32,118.57,0,11.41
Pundaguitan,82.27,69,6.37,126.17,40,5.77
Cherskiy,19.85,97,68.75,161.3,100,9.42
Acapulco de Juárez,77.0,94,16.86,-99.89,20,2.24
Payo,85.89,66,-3.75,103.64,96,3.49
Kamenka,37.42,93,51.32,42.77,96,9.82
Oranjemund,59.2,70,-28.55,16.43,3,4.99
Airai,66.88,70,-8.93,125.41,52,1.28
Cabo San Lucas,64.42,67,22.89,-109.91,81,14.63
Irecê,70.3,76,-11.3,-41.86,100,4.76
Sabzawār,68.58,40,36.21,57.68,97,20.94
Pitkyaranta,32.63,84,61.57,31.48,11,8.84
Sinnamary,78.8,81,5.38,-52.95,97,13.24
Zenzeli,49.3,48,45.92,47.05,0,3.42
Kloulklubed,87.8,66,7.04,134.26,75,10.29
Yoichi,44.44,56,43.2,140.77,75,14.99
Torres,60.42,81,-29.34,-49.73,9,7.4
Zacualtipán,63.88,48,20.65,-98.6,44,0.85
Merta,98.37,13,26.65,74.03,10,9.62
Makokou,72.16,83,0.57,12.86,100,0.98
Erzin,55.65,63,36.96,36.2,20,11.41
Mogadishu,84.2,70,2.04,45.34,75,4.7
Nanortalik,32.5,89,60.14,-45.24,100,4.03
Byron Bay,83.82,32,-28.65,153.62,37,13.87
Borba,74.16,95,-4.39,-59.59,9,1.25
Rudnogorsk,38.66,67,57.26,103.75,100,8.03
Sakakah,55.4,50,29.97,40.21,20,8.05
Solnechnyy,45.32,47,50.72,136.63,0,2.01
Bereda,53.26,100,43.27,-7.54,75,1.81
Oga,38.26,86,46.46,10.35,0,2.24
Aden,83.91,69,12.78,45.04,10,14.85
Idenao,77.0,100,4.25,9.0,75,3.36
Imbituba,62.6,63,-28.24,-48.67,3,3.36
Abalak,47.88,68,58.13,68.59,16,9.19
Fairbanks,32.27,86,64.84,-147.72,90,3.47
Richards Bay,71.62,76,-28.78,32.04,32,15.12
Adré,78.19,13,13.47,22.2,92,21.25
Port Shepstone,74.79,60,-30.74,30.45,72,9.4
Coyhaique,41.0,80,-45.58,-72.07,20,5.75
Kissidougou,72.7,79,9.18,-10.1,63,4.92
Kula,50.13,36,38.55,28.65,0,2.8
Vestmannaeyjar,44.17,91,63.44,-20.27,99,7.49
Jardim,59.7,52,-21.48,-56.14,0,2.08
Los Llanos de Aridane,68.0,77,28.66,-17.92,75,6.93
Tuban,88.88,62,-6.9,112.06,37,5.19
Chunoyar,44.64,54,57.45,97.32,18,4.72
Adrar,72.95,26,20.5,-10.07,0,13.29
Cabedelo,77.0,100,-6.98,-34.83,12,4.7
Shubarshi,52.12,40,48.59,57.19,97,13.11
Burmakino,32.0,78,57.42,40.24,94,6.71
Taltal,62.96,71,-25.4,-70.48,41,2.13
Fukuechō,60.8,55,32.69,128.84,75,6.93
Itupiranga,77.0,100,-5.13,-49.33,99,3.36
Sitka,42.8,35,57.05,-135.33,1,4.7
Lowicz,36.66,86,52.11,19.95,7,2.24
Murray Bridge,64.54,56,-35.12,139.27,21,7.0
Nakambala,65.98,59,-15.83,27.78,91,9.75
Grand Island,47.77,45,40.92,-98.34,1,11.41
Shubarkuduk,52.02,41,49.14,56.49,95,13.42
Touros,77.0,94,-5.2,-35.46,40,3.36
Grindavik,38.25,93,63.84,-22.43,75,8.05
Honiara,87.8,74,-9.43,159.95,20,12.75
Sesheke,60.8,93,-17.48,24.3,76,6.26
Urusha,54.52,46,54.05,122.9,43,4.79
São Filipe,74.14,76,14.9,-24.5,38,6.67
Alofi,80.6,69,-19.06,-169.92,37,4.7
San Andrés,82.4,78,12.58,-81.7,40,9.17
Goma,67.01,51,-1.68,29.22,100,4.47
Ucar,45.48,87,40.52,47.65,40,6.62
Zanzibar,77.0,94,-6.16,39.2,90,13.87
Dunedin,53.89,85,-45.87,170.5,0,3.0
Humboldt,50.76,100,40.67,-123.92,90,0.49
Half Moon Bay,52.5,87,37.46,-122.43,20,6.93
Serra,71.8,100,-20.13,-40.31,90,3.36
Ahipara,63.21,70,-35.17,173.17,50,3.49
Hof,36.12,100,50.32,11.92,1,2.93
Usoke,62.6,100,-5.17,32.35,20,7.54
Kaitangata,53.01,85,-46.28,169.85,0,3.0
Ballina,83.82,32,-28.87,153.57,66,13.87
Huanren,60.37,25,41.26,125.37,8,8.39
Makīnsk,46.83,56,52.63,70.42,8,6.13
Kolpny,40.96,61,52.23,37.04,99,12.57
Saint-Joseph,74.82,61,-21.37,55.62,75,14.99
Neftekamsk,48.18,47,56.09,54.27,100,20.07
Antofagasta,64.4,82,-23.65,-70.4,40,9.17
Jacareacanga,74.05,93,-6.22,-57.75,33,0.38
Sfântu Gheorghe,39.6,58,45.87,25.78,65,1.01
Pak Phanang,96.8,44,8.35,100.2,20,8.05
Sri Aman,87.4,74,1.24,111.46,75,5.82
Ust'-Karsk,63.61,23,52.7,118.81,0,3.44
Bilma,76.26,16,18.69,12.92,69,13.69
Salé,60.75,93,34.04,-6.82,75,3.36
Kangāvar,39.2,100,34.5,47.97,40,2.24
Saint-Augustin,29.98,97,51.23,-58.65,100,6.4
Kang,66.16,49,-23.68,22.79,15,12.8
Christchurch,59.99,77,-43.53,172.63,0,13.87
Ati,83.62,13,13.22,18.34,90,14.2
Gérardmer,44.92,81,48.07,6.88,0,3.36
Scarborough,52.47,76,54.28,-0.4,100,3.36
Sørkjosen,29.39,93,69.8,20.93,98,14.34
Sabla,83.48,25,12.75,4.71,99,6.08
Babushkin,52.74,35,51.71,105.86,0,3.91
Meru,72.27,35,0.05,37.66,15,4.54
Boyolangu,86.74,63,-8.12,111.89,5,10.0
Bharatpur,99.95,12,27.22,77.48,16,8.95
Chapais,30.2,80,49.78,-74.85,90,8.05
Ullapool,49.57,90,57.9,-5.16,99,8.99
Trelew,62.74,52,-43.25,-65.31,67,14.83
Darnah,60.08,59,32.77,22.64,0,17.81
Mishelevka,46.74,62,52.86,103.17,100,7.99
Ashland,36.09,69,40.82,-82.27,1,5.82
Porto Nacional,78.8,83,-10.71,-48.42,75,2.24
Hualmay,71.55,81,-11.1,-77.61,27,6.4
Elizabeth City,44.82,48,36.29,-76.25,1,8.05
Hasaki,60.21,46,35.73,140.83,20,13.87
Umluj,72.54,41,25.02,37.27,17,12.44
Codrington,55.0,65,-38.27,141.97,87,23.8
Vaitape,84.34,71,-16.52,-151.75,96,8.05
Lewistown,34.21,51,40.6,-77.57,20,11.41
George Town,91.2,66,5.41,100.34,20,4.7
Rocha,55.69,89,-34.48,-54.33,6,1.77
Hvolsvollur,39.0,87,63.75,-20.22,100,1.01
Pushchino,32.97,74,54.83,37.63,81,2.24
Broome,32.22,90,42.25,-75.83,75,13.87
Erbaa,46.4,61,40.67,36.57,0,1.25
Beausejour,39.79,80,50.06,-96.52,90,9.17
Champerico,81.41,77,14.3,-91.92,58,8.28
Benguela,77.94,84,-12.58,13.41,91,5.21
Nagato,56.93,47,34.38,131.2,75,5.82
Ostrovnoy,20.3,95,68.05,39.51,77,8.7
Ambilobe,83.35,64,-13.2,49.05,10,6.55
Herat Province,62.6,77,34.5,62.0,75,4.7
Bud,40.78,60,39.45,-86.18,40,6.93
Qasigiannguit,28.4,50,68.82,-51.19,98,3.36
Henties Bay,75.22,52,-22.12,14.28,16,3.87
Umeå,28.22,74,63.83,20.26,0,6.93
Kaspi,48.2,70,41.93,44.43,86,16.11
Banda Aceh,88.56,61,5.56,95.32,22,8.43
Bushehr,78.49,51,28.97,50.84,75,6.93
Oddur,83.26,53,4.12,43.89,23,10.4
São Raimundo das Mangabeiras,74.75,83,-7.02,-45.48,85,1.74
Jōetsu,52.0,58,37.15,138.24,62,6.49
Port-Gentil,81.59,81,-0.72,8.78,100,9.98
Marawi,83.34,46,8.0,124.29,12,5.86
Vasterhaninge,34.12,92,59.12,18.1,3,2.24
Mil'kovo,33.49,78,54.72,158.62,82,2.37
Verkhnyaya Inta,22.59,96,65.98,60.31,100,12.08
Raudeberg,41.4,72,61.99,5.14,100,16.11
Cintalapa,74.68,58,16.7,-93.73,37,1.72
Makakilo City,76.21,73,21.35,-158.09,1,5.82
Sindor,27.91,92,62.86,51.89,89,5.21
Ngora,75.9,50,1.43,33.78,15,4.56
Padang,87.03,67,-0.95,100.35,66,3.02
Channel-Port aux Basques,32.56,96,47.57,-59.14,65,27.96
Mackay,85.73,66,-21.15,149.2,50,11.41
Tres Arroyos,52.09,70,-38.37,-60.28,0,11.07
Lorengau,84.2,72,-2.02,147.27,66,4.43
Dehlorān,74.88,18,32.69,47.27,3,10.58
Nelson Bay,79.18,29,-32.72,152.15,10,32.21
Udachny,33.8,50,66.42,112.4,76,8.95
Kitgum,80.89,43,3.28,32.89,49,4.23
Kruisfontein,62.85,42,-34.0,24.73,55,4.5
Luanda,77.0,94,-8.84,13.23,40,4.7
Steamboat Springs,37.15,48,40.48,-106.83,1,5.82
Aubenas,44.49,86,44.62,4.39,0,1.61
Kharp,21.43,95,66.8,65.81,100,7.18
Puerto Escondido,79.36,66,15.85,-97.07,29,3.98
Chokurdakh,23.86,95,70.63,147.92,56,13.98
Mopipi,69.94,47,-21.18,24.88,58,11.59
Natchitoches,52.54,66,31.77,-93.13,1,5.26
Saint-François,39.9,93,46.42,3.91,0,2.24
Mayumba,79.86,84,-3.43,10.66,95,6.15
San Matías,68.72,70,-16.37,-58.4,42,2.84
Bathsheba,80.6,74,13.22,-59.52,40,12.75
Taksimo,45.57,51,56.34,114.88,55,2.46
City of San Pedro,89.47,55,14.35,121.02,75,9.17
The Valley,79.52,78,18.22,-63.06,20,2.24
Whitecourt,28.4,50,54.15,-115.69,75,11.41
Chara,41.32,55,56.91,118.26,81,2.01
Misratah,60.48,57,32.38,15.09,81,6.38
Impfondo,75.92,77,1.64,18.07,44,1.5
Togur,40.98,73,58.36,82.83,20,8.28
Mergen,59.43,30,49.18,125.22,0,11.92
Ferrol,53.8,100,43.48,-8.24,75,4.94
Ouallam,81.59,34,14.32,2.09,82,3.33
Sørland,34.11,80,67.67,12.69,100,10.89
Torit,87.15,39,4.41,32.57,80,3.58
Irpa Irpa,62.6,59,-17.72,-66.27,14,5.82
Takāb,45.99,29,36.4,47.11,39,10.29
Zhigansk,32.88,92,66.77,123.37,50,15.73
Omsukchan,14.25,87,62.53,155.8,89,7.87
Vágur,46.09,98,61.47,-6.81,100,15.26
Paita,76.24,67,-5.09,-81.11,85,9.33
Sungai Raya,83.93,78,0.7,108.9,20,7.99
Thunder Bay,29.5,86,48.4,-89.32,75,2.75
Pevek,11.8,91,69.7,170.31,100,16.08
Vigia,75.2,100,-0.86,-48.14,100,3.36
Tarabha,105.71,8,20.73,83.65,38,4.32
Kalaiya,97.48,11,27.03,85.0,0,7.38
Puerto Baquerizo Moreno,78.66,87,-0.9,-89.6,99,5.68
Itarema,77.29,86,-2.92,-39.92,100,2.62
Diego de Almagro,51.69,63,-26.37,-70.05,6,0.78
Fare,84.09,72,-16.7,-151.02,95,7.34
Zhob,74.17,21,31.34,69.45,27,6.06
Kavaratti,87.8,70,10.57,72.64,20,4.7
Khasan,45.36,60,42.43,130.64,66,10.87
Isangel,78.19,61,-19.55,169.27,48,9.26
Hervey Bay,82.6,62,-25.3,152.85,94,13.87
Bonthe,79.54,86,7.53,-12.51,82,1.01
Jacqueville,77.0,88,5.21,-4.41,46,2.24
Batemans Bay,62.94,47,-35.72,150.18,20,1.99
Bosaso,85.78,55,11.28,49.18,12,9.44
Stephenville,59.47,72,32.22,-98.2,1,3.36
Conakry,80.35,81,9.54,-13.68,85,3.67
Noumea,80.6,54,-22.28,166.46,75,10.29
Lodja,75.79,75,-3.48,23.43,67,1.88
La Rioja,51.96,87,42.25,-2.5,90,6.93
Manta,80.6,78,-0.95,-80.73,100,6.15
Presidencia Roque Sáenz Peña,54.52,75,-26.79,-60.44,0,3.11
Benjamín Hill,57.0,54,30.17,-111.1,0,1.99
Council Bluffs,44.78,42,41.26,-95.86,1,12.75
Amurzet,52.12,40,47.7,131.1,36,6.38
Maceió,79.11,82,-9.67,-35.74,60,5.19
Lavumisa,69.89,67,-27.31,31.89,69,4.32
Nsanje,75.04,73,-16.92,35.26,33,3.0
Bandundu Province,74.8,82,-3.32,17.37,76,3.33
Haines Junction,16.93,80,60.75,-137.51,27,0.98
Tessalit,77.04,15,20.2,1.01,20,7.47
Chenzhou,53.42,83,25.8,113.03,100,9.51
Ugoofaaru,84.83,71,5.67,73.0,30,8.68
Micheweni,81.5,83,-4.97,39.83,100,21.39
Pochutla,79.0,82,15.74,-96.47,15,6.78
San Rafael del Sur,82.4,78,11.85,-86.44,20,6.93
Severo-Kuril'sk,31.95,93,50.68,156.12,49,6.55
Hlukhiv,42.51,58,51.68,33.92,5,11.36
Molchanovo,43.07,62,57.58,83.77,51,9.26
Ulladulla,66.88,37,-35.35,150.47,40,28.86
Mehamn,27.91,91,71.04,27.85,100,11.74
Pozo Colorado,57.33,67,-23.49,-58.8,0,4.65
Terney,34.92,82,45.05,136.61,94,7.49
Jiazi,76.3,73,22.88,116.07,74,8.66
São Félix do Xingu,73.31,91,-6.64,-51.99,75,0.58
Namatanai,84.47,70,-3.67,152.43,64,4.92
Ambovombe,77.45,70,-25.17,46.08,36,15.79
Porto-Novo,80.6,88,6.5,2.6,40,2.24
Kamalia,92.79,22,30.73,72.65,31,3.87
Kenora,33.01,64,49.82,-94.43,20,6.93
Jinan,64.0,38,36.67,117.0,35,1.01
Hūn,59.54,41,29.13,15.95,83,8.37
Marsh Harbour,72.81,75,26.54,-77.06,36,12.84
Tomobe,58.84,30,36.35,140.3,40,9.17
San Rafael,61.29,49,-34.62,-68.33,23,8.16
Lenggries,42.3,86,47.68,11.57,3,2.24
Jiexiu,53.38,29,37.02,111.91,11,7.14
Lompoc,51.76,93,34.64,-120.46,1,8.05
Sonoma,51.13,81,38.55,-122.9,40,5.82
Coahuayana Viejo,75.69,45,18.73,-103.68,0,3.29
Myitkyina,104.88,11,25.38,97.4,0,2.01
Cheremushskiy,29.88,90,61.27,47.26,16,5.19
Laas,41.97,38,46.62,10.7,5,4.7
Guane,75.38,86,22.2,-84.09,14,3.38
Springbok,58.53,26,-29.66,17.89,0,0.45
Kimbe,82.83,82,-5.55,150.14,85,2.57
Shache,71.96,11,38.42,77.24,76,5.55
La Providencia,59.0,38,28.72,-111.58,5,4.7
Teshie,78.8,88,5.58,-0.11,75,6.93
Vidalia,47.97,81,32.22,-82.41,1,4.7
Río Gallegos,42.8,70,-51.62,-69.22,54,6.93
Santiago,55.4,82,-33.46,-70.65,69,6.93
Jiuquan,63.41,11,39.74,98.52,0,16.24
Chistogorskiy,45.37,53,53.98,87.38,0,3.24
Shumskiy,39.85,60,54.83,99.13,97,4.72
Beloha,78.04,65,-25.17,45.05,29,14.88
Wagar,78.67,35,16.15,36.2,16,12.37
Krasnosel'kup,33.57,99,65.7,82.47,100,15.3
Port Victoria,72.95,56,0.09,33.98,70,5.7
Eskişehir,37.47,60,39.78,30.52,0,4.7
Tiarei,82.2,69,-17.53,-149.33,98,3.36
Launceston,59.58,50,-41.45,147.17,40,19.46
Yenagoa,77.16,89,4.92,6.26,60,5.99
Leer,89.35,42,8.3,30.14,94,3.74
Dutlwe,65.44,49,-23.98,23.9,26,12.03
Ajdabiya,58.26,66,30.76,20.23,2,5.79
Santarém,78.8,88,-2.44,-54.71,75,14.99
Dolores,53.82,93,-36.31,-57.68,0,4.76
